sine_table.vcd
$date
	Wed Nov 23 05:53:25 2022
$end
$version
	Icarus Verilog
$end
$timescale
	1ps
$end
$scope module sine_table_tb $end
$var wire 16 ! data [15:0] $end
$var reg 1 " clk $end
$var reg 9 # id [8:0] $end
$var reg 1 $ rst $end
$scope module uut $end
$var wire 1 " clk $end
$var wire 9 % id [8:0] $end
$var wire 1 $ rst $end
$var wire 8 & tab_data [7:0] $end
$var parameter 32 ' ADDRW $end
$var parameter 32 ( ROM_DEPTH $end
$var parameter 32 ) ROM_WIDTH $end
$var reg 16 * data [15:0] $end
$var reg 2 + quad [1:0] $end
$var reg 7 , tab_id [6:0] $end
$scope module sine_rom $end
$var wire 7 - addra [6:0] $end
$var wire 1 " clka $end
$var wire 8 . dina [7:0] $end
$var wire 1 / ena $end
$var wire 1 0 regcea $end
$var wire 1 $ rsta $end
$var wire 1 1 wea $end
$var wire 8 2 douta [7:0] $end
$var parameter 152 3 INIT_FILE $end
$var parameter 32 4 RAM_DEPTH $end
$var parameter 128 5 RAM_PERFORMANCE $end
$var parameter 32 6 RAM_WIDTH $end
$var reg 8 7 ram_data [7:0] $end
$scope function clogb2 $end
$var integer 32 8 depth [31:0] $end
$upscope $end
$scope begin output_register $end
$var reg 8 9 douta_reg [7:0] $end
$upscope $end
$scope begin use_init_file $end
$upscope $end
$upscope $end
$upscope $end
$upscope $end
$enddefinitions $end
$comment Show the parameter values. $end
$dumpall
b1000 6
b1001000010010010100011101001000010111110101000001000101010100100100011001001111010100100100110101000001010011100100001101000101 5
b1011010 4
b1100100011000010111010001100001001011110111001101101001011011100110010101011111011101000110000101100010011011000110010100101110011011010110010101101101 3
b1000 )
b1011010 (
b1001 '
$end
#0
$dumpvars
b0 9
bx 8
b0 7
b0 2
01
10
1/
b0 .
bx -
bx ,
bx +
b0 *
b0 &
bx %
0$
bx #
0"
b0 !
$end
#10000
bx 7
1"
#20000
0"
1$
#30000
1"
#40000
b11110 ,
b11110 -
b0 +
0"
b11110 #
b11110 %
0$
#50000
b0xxxxxxxx !
b0xxxxxxxx *
bx &
bx 2
bx 9
b10000000 7
1"
#60000
0"
#70000
b10000000 !
b10000000 *
b10000000 &
b10000000 2
b10000000 9
1"
#80000
0"
#90000
1"
#100000
b111100 ,
b111100 -
0"
b111100 #
b111100 %
#110000
b11011110 7
1"
#120000
0"
#130000
b11011110 !
b11011110 *
b11011110 &
b11011110 2
b11011110 9
1"
#140000
0"
#150000
1"
#160000
b100000000 !
b100000000 *
b1011010 ,
b1011010 -
b1 +
0"
b1011010 #
b1011010 %
#170000
bx 7
1"
#180000
0"
#190000
bx &
bx 2
bx 9
1"
#200000
0"
#210000
1"
#220000
bx !
bx *
b101101 ,
b101101 -
b10 +
0"
b11100001 #
b11100001 %
#230000
b10110101 7
1"
#240000
0"
#250000
b1111111101001011 !
b1111111101001011 *
b10110101 &
b10110101 2
b10110101 9
1"
